<svg xmlns="http://www.w3.org/2000/svg" width="51.301" height="51.3" viewBox="0 0 51.301 51.3">
  <path id="Union_5" data-name="Union 5" d="M41.678,47.416H8.821a3.662,3.662,0,1,1-4.195-4.195V39.706A5.544,5.544,0,0,0,.966,41.1.579.579,0,0,1,0,40.617L1.544,23.654a.579.579,0,0,1,.577-.526H8.44a4.055,4.055,0,0,0-4.006-3.469.578.578,0,1,1,0-1.156H7.72A17.563,17.563,0,0,1,24.672,1.551V.578a.578.578,0,1,1,1.156,0v.972A17.564,17.564,0,0,1,42.78,18.5h3.286a.578.578,0,1,1,0,1.156,4.054,4.054,0,0,0-4.006,3.469h6.319a.579.579,0,0,1,.576.526L50.5,40.617a.579.579,0,0,1-.964.482,5.538,5.538,0,0,0-3.66-1.393v3.516a3.662,3.662,0,1,1-4.195,4.195Zm1.111-.578a2.506,2.506,0,1,0,2.506-2.506A2.509,2.509,0,0,0,42.789,46.838Zm-40.09,0A2.506,2.506,0,1,0,5.2,44.332,2.509,2.509,0,0,0,2.7,46.838Zm38.979-.578a3.672,3.672,0,0,1,3.038-3.038V39.808A5.428,5.428,0,0,0,42.084,41.1a.579.579,0,0,1-.494.139.581.581,0,0,1-.282-.139,5.672,5.672,0,0,0-7.448,0,.577.577,0,0,1-.784-.008,5.676,5.676,0,0,0-7.425,0,.576.576,0,0,1-.167.113.589.589,0,0,1-.085.03h-.01a.579.579,0,0,1-.11.016H25.2l-.022,0h-.026a.594.594,0,0,1-.144-.042.572.572,0,0,1-.168-.114,5.676,5.676,0,0,0-7.419,0,.579.579,0,0,1-.174.116.587.587,0,0,1-.227.045h-.02a.579.579,0,0,1-.368-.148A5.672,5.672,0,0,0,9.2,41.093a.58.58,0,0,1-.746.036q-.023-.017-.043-.037a5.424,5.424,0,0,0-2.624-1.284v3.413A3.672,3.672,0,0,1,8.821,46.26Zm.53-6.7a6.774,6.774,0,0,1,2.945-.976.58.58,0,0,1,.141-.017l.05,0a6.9,6.9,0,0,1,3.884.884L47.85,24.285H41.284l.862,14.23Zm-33.919,0,.925-15.279H2.649L1.27,39.457a6.864,6.864,0,0,1,3.421-.9q.235,0,.469.016l.045,0a.579.579,0,0,1,.136.016A6.775,6.775,0,0,1,8.29,39.564Zm8.191-.02.463-15.259H10.375L9.454,39.479a6.954,6.954,0,0,1,7.027.065Zm17.537,0a6.946,6.946,0,0,1,7.026-.065l-.921-15.194H33.556Zm-8.19-.021a6.949,6.949,0,0,1,7.031-.021L32.4,24.285h-6.57Zm-1.156,0V24.285H18.1L17.64,39.5a6.953,6.953,0,0,1,7.032.022ZM9.606,23.128H40.893A5.206,5.206,0,0,1,42.8,19.659H7.7A5.207,5.207,0,0,1,9.606,23.128ZM41.622,18.5a16.383,16.383,0,0,0-32.745,0Zm-37,28.339a.578.578,0,1,1,.578.578A.578.578,0,0,1,4.626,46.842Zm40.089,0a.578.578,0,1,1,.578.578A.578.578,0,0,1,44.716,46.838Z" transform="translate(0.401 0.4)" fill="#fff" stroke="#fff" stroke-width="0.8"/>
</svg>
