<svg xmlns="http://www.w3.org/2000/svg" width="26" height="26" viewBox="0 0 26 26">
  <path id="close" d="M10.276,9.192,9.3,8.215l-.106-.106L1.083,0,0,1.083,8.109,9.192h0l1.083,1.083h0L17.3,18.385,18.385,17.3,10.276,9.192Z" transform="translate(0 13) rotate(-45)" fill="#bdb09d"/>
</svg>
